{
    "id": "Selective disclosure example presentation",
    "definition_id": "Selective disclosure example",
    "descriptor_map": [
        {
            "id": "ID Card with constraints",
            "format": "ldp_vp",
            "path": "$",
            "path_nested": {
                "format": "ldp_vc",
                "path": "$.verifiableCredential[0]"
            }
        }
    ]
}