[
   {
      "type":"openid_credential",
      "locations": ["https://credential-issuer.example.com"],
      "format":"jwt_vc_json",
      "types":[
        "VerifiableCredential",
        "UniversityDegreeCredential"
      ]
   }
]