{
    "credential_issuer": "https://credential-issuer.example.com",
    "credentials": [
        {
            "format": "jwt_vc_json",
            "types": [
                "VerifiableCredential",
                "UniversityDegreeCredential"
            ]
        }
    ],
    "grants": {
        "authorization_code": {
            "issuer_state": "eyJhbGciOiJSU0Et...FYUaBy"
        }
    }
}