{
    "credential_issuer": "https://credential-issuer.example.com",
    "format": "ldp_vc",
    "credential_definition": {
        "@context": [
            "https://www.w3.org/2018/credentials/v1",
            "https://www.w3.org/2018/credentials/examples/v1"
        ],
        "types": [
            "VerifiableCredential",
            "UniversityDegreeCredential"
        ]
    }
}