{
    "credential_issuer": "https://credential-issuer.example.com",
    "credentials": [
        {
            "format": "jwt_vc_json",
            "types": [
                "VerifiableCredential",
                "UniversityDegreeCredential"
            ]
        }
    ],
    "grants": {
        "urn:ietf:params:oauth:grant-type:pre-authorized_code": {
            "pre-authorized_code": "adhjhdjajkdkhjhdj",
            "user_pin_required": true
        }
    }
}